Assignment2_Q3
…
Assignment2_Q3

library(AER)
data("CASchools")
library(tidyverse)

a. Create a new tibble called CASchools_A2_3 (with twice as many rows as the original) called which contains the following variables from the original CASchools : school and county as well as two new columns: a single column containing both the reading AND math average exam scores and another column which indicates whether the ﬁrst column contains a read score or a math score. Name this new tibble CA_Schools_A2_3_LONG . Hint: The suggested name for the tibble gives away the answer on what to do!

CASchools_A2_3_LONG <- as_tibble(CASchools) %>% 
  select(school, county, read, math) %>% 
  pivot_longer(cols=c(read, math), names_to = "ScoreType", values_to = "Score")

CASchools_A2_3_LONG

# A tibble: 840 × 4
   school                          county  ScoreType Score
   <chr>                           <fct>   <chr>     <dbl>
 1 Sunol Glen Unified              Alameda read       692.
 2 Sunol Glen Unified              Alameda math       690 
 3 Manzanita Elementary            Butte   read       660.
 4 Manzanita Elementary            Butte   math       662.
 5 Thermalito Union Elementary     Butte   read       636.
 6 Thermalito Union Elementary     Butte   math       651.
 7 Golden Feather Union Elementary Butte   read       652.
 8 Golden Feather Union Elementary Butte   math       644.
 9 Palermo Union Elementary        Butte   read       642.
10 Palermo Union Elementary        Butte   math       640.
# … with 830 more rows

b. Using CA_Schools_A2_3_LONG , create a summary table called CA_Schools_3_summary with a row for read and a row for math for each county where the columns are the minimum, maximum, median and IQR of the school average scores by county for that test.

CA_Schools_3_summary <- CASchools_A2_3_LONG %>% 
  group_by(county, ScoreType) %>% 
  select(county, ScoreType, Score) %>% 
  summarise_all(list(Min=min, Max=max, Med=median, IQR=IQR)) %>% 
  ungroup()

CA_Schools_3_summary

# A tibble: 90 × 6
   county       ScoreType   Min   Max   Med   IQR
   <fct>        <chr>     <dbl> <dbl> <dbl> <dbl>
 1 Alameda      math       690   690   690   0   
 2 Alameda      read       692.  692.  692.  0   
 3 Butte        math       630.  662.  642. 10.5 
 4 Butte        read       636.  660.  644.  8.88
 5 Calaveras    math       650.  650.  650.  0   
 6 Calaveras    read       663.  663.  663.  0   
 7 Contra Costa math       634.  697.  687. 44.5 
 8 Contra Costa read       637.  699.  682. 41.2 
 9 El Dorado    math       637.  677.  665. 10.7 
10 El Dorado    read       652.  678.  668. 11.9 
# … with 80 more rows

c. Using CA_Schools_3_summary , reformat the summary table to wide format where read and math are now two columns and there are columns for county and the name of the statistic that was computed in part (b).

CA_Schools_3_summary %>% 
  pivot_longer(cols=c(Min, Max, Med, IQR), names_to = "Measure") %>%
  pivot_wider(id_cols=c(county, Measure), names_from=ScoreType)

# A tibble: 180 × 4
   county    Measure  math   read
   <fct>     <chr>   <dbl>  <dbl>
 1 Alameda   Min     690   692.  
 2 Alameda   Max     690   692.  
 3 Alameda   Med     690   692.  
 4 Alameda   IQR       0     0   
 5 Butte     Min     630.  636.  
 6 Butte     Max     662.  660.  
 7 Butte     Med     642.  644.  
 8 Butte     IQR      10.5   8.88
 9 Calaveras Min     650.  663.  
10 Calaveras Max     650.  663.  
# … with 170 more rows
